# Exported from ProBuilder
# http://www.procore3d.com/probuilder
# 2/9/2019 2:47:47 PM

mtllib ./HandRail.mtl
o HandRail

g pb-MergedObject-380772
v 2.05 4 20.05
v 2 4 20.05
v 2.05 5.15 20.05
v 2 5.15 20.05
v 2 4 20.05
v 2 4 20
v 2 5.15 20.05
v 2 5.15 20
v 2 4 20
v 2.05 4 20
v 2 5.15 20
v 2.05 5.15 20
v 2.05 4 20
v 2.05 4 20.05
v 2.05 5.15 20
v 2.05 5.15 20.05
v 2.05 5.15 20.05
v 2 5.15 20.05
v 2.05 5.15 20
v 2 5.15 20
v 2.05 4 20
v 2 4 20
v 2.05 4 20.05
v 2 4 20.05
v 6.05 4 20.05
v 6 4 20.05
v 6.05 5.15 20.05
v 6 5.15 20.05
v 6 4 20.05
v 6 4 20
v 6 5.15 20.05
v 6 5.15 20
v 6 4 20
v 6.05 4 20
v 6 5.15 20
v 6.05 5.15 20
v 6.05 4 20
v 6.05 4 20.05
v 6.05 5.15 20
v 6.05 5.15 20.05
v 6.05 5.15 20.05
v 6 5.15 20.05
v 6.05 5.15 20
v 6 5.15 20
v 6.05 4 20
v 6 4 20
v 6.05 4 20.05
v 6 4 20.05
v 10.05 4 20.05
v 10 4 20.05
v 10.05 5.15 20.05
v 10 5.15 20.05
v 10 4 20.05
v 10 4 20
v 10 5.15 20.05
v 10 5.15 20
v 10 4 20
v 10.05 4 20
v 10 5.15 20
v 10.05 5.15 20
v 10.05 4 20
v 10.05 4 20.05
v 10.05 5.15 20
v 10.05 5.15 20.05
v 10.05 5.15 20.05
v 10 5.15 20.05
v 10.05 5.15 20
v 10 5.15 20
v 10.05 4 20
v 10 4 20
v 10.05 4 20.05
v 10 4 20.05
v 13.05 4 20.05
v 13 4 20.05
v 13.05 5.15 20.05
v 13 5.15 20.05
v 13 4 20.05
v 13 4 20
v 13 5.15 20.05
v 13 5.15 20
v 13 4 20
v 13.05 4 20
v 13 5.15 20
v 13.05 5.15 20
v 13.05 4 20
v 13.05 4 20.05
v 13.05 5.15 20
v 13.05 5.15 20.05
v 13.05 5.15 20.05
v 13 5.15 20.05
v 13.05 5.15 20
v 13 5.15 20
v 13.05 4 20
v 13 4 20
v 13.05 4 20.05
v 13 4 20.05
v 15 5.15 20.05
v 2 5.15 20.05
v 15 5.19 20.05
v 2 5.19 20.05
v 2 5.15 20.05
v 2 5.15 20
v 2 5.19 20.05
v 2 5.19 20
v 2 5.15 20
v 15 5.15 20
v 2 5.19 20
v 15 5.19 20
v 15 5.15 20
v 15 5.15 20.05
v 15 5.19 20
v 15 5.19 20.05
v 14.99 5.2 20.04
v 2.01 5.2 20.04
v 14.99 5.2 20.01
v 2.01 5.2 20.01
v 15 5.15 20
v 2 5.15 20
v 15 5.15 20.05
v 2 5.15 20.05
v 2 5.19 20.05
v 15 5.19 20.05
v 2.01 5.2 20.04
v 14.99 5.2 20.04
v 15 5.19 20.05
v 15 5.19 20
v 14.99 5.2 20.04
v 14.99 5.2 20.01
v 2 5.19 20
v 2 5.19 20.05
v 2.01 5.2 20.01
v 2.01 5.2 20.04
v 15 5.19 20
v 2 5.19 20
v 14.99 5.2 20.01
v 2.01 5.2 20.01
v 15 4 20.05
v 14.95 4 20.05
v 15 5.15 20.05
v 14.95 5.15 20.05
v 14.95 4 20.05
v 14.95 4 20
v 14.95 5.15 20.05
v 14.95 5.15 20
v 14.95 4 20
v 15 4 20
v 14.95 5.15 20
v 15 5.15 20
v 15 4 20
v 15 4 20.05
v 15 5.15 20
v 15 5.15 20.05
v 15 5.15 20.05
v 14.95 5.15 20.05
v 15 5.15 20
v 14.95 5.15 20
v 15 4 20
v 14.95 4 20
v 15 4 20.05
v 14.95 4 20.05
v 15 4 20.04
v 2.05 4 20.04
v 15 5.05 20.04
v 2.05 5.05 20.04
v 2.05 4 20.04
v 2.05 4 20.03
v 2.05 5.05 20.04
v 2.05 5.05 20.03
v 2.05 4 20.03
v 15 4 20.03
v 2.05 5.05 20.03
v 15 5.05 20.03
v 15 4 20.03
v 15 4 20.04
v 15 5.05 20.03
v 15 5.05 20.04
v 15 5.05 20.04
v 2.05 5.05 20.04
v 15 5.05 20.03
v 2.05 5.05 20.03
v 15 4 20.03
v 2.05 4 20.03
v 15 4 20.04
v 2.05 4 20.04

vn 0 0 1
vn 0 0 1
vn 0 0 1
vn 0 0 1
vn -0.9999999 0 0
vn -0.9999999 0 0
vn -0.9999999 0 0
vn -0.9999999 0 0
vn 0 0 -1
vn 0 0 -1
vn 0 0 -1
vn 0 0 -1
vn 0.9999999 0 0
vn 0.9999999 0 0
vn 0.9999999 0 0
vn 0.9999999 0 0
vn 0 0.9999999 0
vn 0 0.9999999 0
vn 0 0.9999999 0
vn 0 0.9999999 0
vn 0 -0.9999999 0
vn 0 -0.9999999 0
vn 0 -0.9999999 0
vn 0 -0.9999999 0
vn 0 0 1
vn 0 0 1
vn 0 0 1
vn 0 0 1
vn -0.9999999 0 0
vn -0.9999999 0 0
vn -0.9999999 0 0
vn -0.9999999 0 0
vn 0 0 -1
vn 0 0 -1
vn 0 0 -1
vn 0 0 -1
vn 0.9999999 0 0
vn 0.9999999 0 0
vn 0.9999999 0 0
vn 0.9999999 0 0
vn 0 0.9999999 0
vn 0 0.9999999 0
vn 0 0.9999999 0
vn 0 0.9999999 0
vn 0 -0.9999999 0
vn 0 -0.9999999 0
vn 0 -0.9999999 0
vn 0 -0.9999999 0
vn 0 0 1
vn 0 0 1
vn 0 0 1
vn 0 0 1
vn -0.9999999 0 0
vn -0.9999999 0 0
vn -0.9999999 0 0
vn -0.9999999 0 0
vn 0 0 -1
vn 0 0 -1
vn 0 0 -1
vn 0 0 -1
vn 0.9999999 0 0
vn 0.9999999 0 0
vn 0.9999999 0 0
vn 0.9999999 0 0
vn 0 0.9999999 0
vn 0 0.9999999 0
vn 0 0.9999999 0
vn 0 0.9999999 0
vn 0 -0.9999999 0
vn 0 -0.9999999 0
vn 0 -0.9999999 0
vn 0 -0.9999999 0
vn 0 0 1
vn 0 0 1
vn 0 0 1
vn 0 0 1
vn -0.9999999 0 0
vn -0.9999999 0 0
vn -0.9999999 0 0
vn -0.9999999 0 0
vn 0 0 -1
vn 0 0 -1
vn 0 0 -1
vn 0 0 -1
vn 0.9999999 0 0
vn 0.9999999 0 0
vn 0.9999999 0 0
vn 0.9999999 0 0
vn 0 0.9999999 0
vn 0 0.9999999 0
vn 0 0.9999999 0
vn 0 0.9999999 0
vn 0 -0.9999999 0
vn 0 -0.9999999 0
vn 0 -0.9999999 0
vn 0 -0.9999999 0
vn 0 0 1
vn 0 0 1
vn 0 0 1
vn 0 0 1
vn -1 0 0
vn -1 0 0
vn -1 0 0
vn -1 0 0
vn 0 0 -1
vn 0 0 -1
vn 0 0 -1
vn 0 0 -1
vn 1 0 0
vn 1 0 0
vn 1 0 0
vn 1 0 0
vn 0 1 0
vn 0 1 0
vn 0 1 0
vn 0 1 0
vn 0 -1 0
vn 0 -1 0
vn 0 -1 0
vn 0 -1 0
vn 0 0.7071068 0.7071068
vn 0 0.7071068 0.7071068
vn 0 0.7071068 0.7071068
vn 0 0.7071068 0.7071068
vn 0.7071068 0.7071068 0
vn 0.7071068 0.7071068 0
vn 0.7071068 0.7071068 0
vn 0.7071068 0.7071068 0
vn -0.7071068 0.7071068 0
vn -0.7071068 0.7071068 0
vn -0.7071068 0.7071068 0
vn -0.7071068 0.7071068 0
vn 0 0.7071068 -0.7071068
vn 0 0.7071068 -0.7071068
vn 0 0.7071068 -0.7071068
vn 0 0.7071068 -0.7071068
vn 0 0 1
vn 0 0 1
vn 0 0 1
vn 0 0 1
vn -0.9999999 0 0
vn -0.9999999 0 0
vn -0.9999999 0 0
vn -0.9999999 0 0
vn 0 0 -1
vn 0 0 -1
vn 0 0 -1
vn 0 0 -1
vn 0.9999999 0 0
vn 0.9999999 0 0
vn 0.9999999 0 0
vn 0.9999999 0 0
vn 0 0.9999999 0
vn 0 0.9999999 0
vn 0 0.9999999 0
vn 0 0.9999999 0
vn 0 -0.9999999 0
vn 0 -0.9999999 0
vn 0 -0.9999999 0
vn 0 -0.9999999 0
vn 0 0 1
vn 0 0 1
vn 0 0 1
vn 0 0 1
vn -0.9999999 0 0
vn -0.9999999 0 0
vn -0.9999999 0 0
vn -0.9999999 0 0
vn 0 0 -1
vn 0 0 -1
vn 0 0 -1
vn 0 0 -1
vn 0.9999999 0 0
vn 0.9999999 0 0
vn 0.9999999 0 0
vn 0.9999999 0 0
vn 0 1 0
vn 0 1 0
vn 0 1 0
vn 0 1 0
vn 0 -1 0
vn 0 -1 0
vn 0 -1 0
vn 0 -1 0

vt -0.9499998 0
vt -1 0
vt -0.9499998 1.15
vt -1 1.15
vt -0.9500008 0
vt -1 0
vt -0.9500008 1.15
vt -1 1.15
vt 1 0
vt 0.9499998 0
vt 1 1.15
vt 0.9499998 1.15
vt 1 0
vt 0.9500008 0
vt 1 1.15
vt 0.9500008 1.15
vt 0.9499998 -0.9500008
vt 1 -0.9500008
vt 0.9499998 -1
vt 1 -1
vt -0.9499998 -1
vt -1 -1
vt -0.9499998 -0.9500008
vt -1 -0.9500008
vt -0.9499998 0
vt -1 0
vt -0.9499998 1.15
vt -1 1.15
vt -0.9500008 0
vt -1 0
vt -0.9500008 1.15
vt -1 1.15
vt 1 0
vt 0.9499998 0
vt 1 1.15
vt 0.9499998 1.15
vt 1 0
vt 0.9500008 0
vt 1 1.15
vt 0.9500008 1.15
vt 0.9499998 -0.9500008
vt 1 -0.9500008
vt 0.9499998 -1
vt 1 -1
vt -0.9499998 -1
vt -1 -1
vt -0.9499998 -0.9500008
vt -1 -0.9500008
vt -0.9499998 0
vt -1 0
vt -0.9499998 1.15
vt -1 1.15
vt -0.9500008 0
vt -1 0
vt -0.9500008 1.15
vt -1 1.15
vt 1 0
vt 0.9499998 0
vt 1 1.15
vt 0.9499998 1.15
vt 1 0
vt 0.9500008 0
vt 1 1.15
vt 0.9500008 1.15
vt 0.9499998 -0.9500008
vt 1 -0.9500008
vt 0.9499998 -1
vt 1 -1
vt -0.9499998 -1
vt -1 -1
vt -0.9499998 -0.9500008
vt -1 -0.9500008
vt -0.9499998 0
vt -1 0
vt -0.9499998 1.15
vt -1 1.15
vt -0.9500008 0
vt -1 0
vt -0.9500008 1.15
vt -1 1.15
vt 1 0
vt 0.9499998 0
vt 1 1.15
vt 0.9499998 1.15
vt 1 0
vt 0.9500008 0
vt 1 1.15
vt 0.9500008 1.15
vt 0.9499998 -0.9500008
vt 1 -0.9500008
vt 0.9499998 -1
vt 1 -1
vt -0.9499998 -1
vt -1 -1
vt -0.9499998 -0.9500008
vt -1 -0.9500008
vt 12 1.15
vt -1 1.15
vt 12 1.19
vt -1 1.19
vt -0.9500008 1.15
vt -1 1.15
vt -0.9500008 1.19
vt -1 1.19
vt 1 1.15
vt -12 1.15
vt 1 1.19
vt -12 1.19
vt 1 1.15
vt 0.9500008 1.15
vt 1 1.19
vt 0.9500008 1.19
vt -11.99 -0.9600008
vt 0.99 -0.9600008
vt -11.99 -0.99
vt 0.99 -0.99
vt 12 -1
vt -1 -1
vt 12 -0.9500008
vt -1 -0.9500008
vt -1 1.513209
vt 12 1.513209
vt -0.99 1.527351
vt 11.99 1.527351
vt -7.643936 -0.9500008
vt -7.643936 -1
vt -7.629794 -0.9600008
vt -7.629794 -0.99
vt -0.1343502 -1
vt -0.1343502 -0.9500008
vt -0.1484923 -0.99
vt -0.1484923 -0.9600008
vt -12 0.1343502
vt 1 0.1343502
vt -11.99 0.1484923
vt 0.99 0.1484923
vt -0.9499998 0
vt -1 0
vt -0.9499998 1.15
vt -1 1.15
vt -0.9500008 0
vt -1 0
vt -0.9500008 1.15
vt -1 1.15
vt 1 0
vt 0.9499998 0
vt 1 1.15
vt 0.9499998 1.15
vt 1 0
vt 0.9500008 0
vt 1 1.15
vt 0.9500008 1.15
vt 0.9499998 -0.9500008
vt 1 -0.9500008
vt 0.9499998 -1
vt 1 -1
vt -0.9499998 -1
vt -1 -1
vt -0.9499998 -0.9500008
vt -1 -0.9500008
vt 2 0
vt -10.95 0
vt 2 1.05
vt -10.95 1.05
vt -0.9899998 0
vt -1 0
vt -0.9899998 1.05
vt -1 1.05
vt 10.95 0
vt -2 0
vt 10.95 1.05
vt -2 1.05
vt 1 0
vt 0.9899998 0
vt 1 1.05
vt 0.9899998 1.05
vt -2 -0.9899998
vt 10.95 -0.9899998
vt -2 -1
vt 10.95 -1
vt 2 -1
vt -10.95 -1
vt 2 -0.9899998
vt -10.95 -0.9899998

g pb-MergedObject-380772_0
usemtl M02_02_BlackMetal
f 3/3/3 4/4/4 2/2/2 1/1/1
f 7/7/7 8/8/8 6/6/6 5/5/5
f 11/11/11 12/12/12 10/10/10 9/9/9
f 15/15/15 16/16/16 14/14/14 13/13/13
f 19/19/19 20/20/20 18/18/18 17/17/17
f 23/23/23 24/24/24 22/22/22 21/21/21
f 27/27/27 28/28/28 26/26/26 25/25/25
f 31/31/31 32/32/32 30/30/30 29/29/29
f 35/35/35 36/36/36 34/34/34 33/33/33
f 39/39/39 40/40/40 38/38/38 37/37/37
f 43/43/43 44/44/44 42/42/42 41/41/41
f 47/47/47 48/48/48 46/46/46 45/45/45
f 51/51/51 52/52/52 50/50/50 49/49/49
f 55/55/55 56/56/56 54/54/54 53/53/53
f 59/59/59 60/60/60 58/58/58 57/57/57
f 63/63/63 64/64/64 62/62/62 61/61/61
f 67/67/67 68/68/68 66/66/66 65/65/65
f 71/71/71 72/72/72 70/70/70 69/69/69
f 75/75/75 76/76/76 74/74/74 73/73/73
f 79/79/79 80/80/80 78/78/78 77/77/77
f 83/83/83 84/84/84 82/82/82 81/81/81
f 87/87/87 88/88/88 86/86/86 85/85/85
f 91/91/91 92/92/92 90/90/90 89/89/89
f 95/95/95 96/96/96 94/94/94 93/93/93
f 99/99/99 100/100/100 98/98/98 97/97/97
f 103/103/103 104/104/104 102/102/102 101/101/101
f 107/107/107 108/108/108 106/106/106 105/105/105
f 111/111/111 112/112/112 110/110/110 109/109/109
f 115/115/115 116/116/116 114/114/114 113/113/113
f 119/119/119 120/120/120 118/118/118 117/117/117
f 124/124/124 123/123/123 121/121/121 122/122/122
f 128/128/128 127/127/127 125/125/125 126/126/126
f 132/132/132 131/131/131 129/129/129 130/130/130
f 136/136/136 135/135/135 133/133/133 134/134/134
f 139/139/139 140/140/140 138/138/138 137/137/137
f 143/143/143 144/144/144 142/142/142 141/141/141
f 147/147/147 148/148/148 146/146/146 145/145/145
f 151/151/151 152/152/152 150/150/150 149/149/149
f 155/155/155 156/156/156 154/154/154 153/153/153
f 159/159/159 160/160/160 158/158/158 157/157/157

g pb-MergedObject-380772_1
usemtl M_Glass
f 163/163/163 164/164/164 162/162/162 161/161/161
f 167/167/167 168/168/168 166/166/166 165/165/165
f 171/171/171 172/172/172 170/170/170 169/169/169
f 175/175/175 176/176/176 174/174/174 173/173/173
f 179/179/179 180/180/180 178/178/178 177/177/177
f 183/183/183 184/184/184 182/182/182 181/181/181

